INDEX VERSION 1.127+C:\Users\Amelia\Desktop\Amelia\Programmering\Workspaces\EDA016_scala\.metadata\.plugins\org.eclipse.jdt.core
3580456661.index
2768476762.index
1007340512.index
1259207542.index
1657330681.index
